^C:\USERS\MIROSLAV ŠKODA\DESKTOP\PGRF2\FFT\FFT\FFT.CPP|C:\USERS\MIROSLAV ŠKODA\DESKTOP\PGRF2\FFT\FFT\MAIN.CPP
C:\USERS\MIROSLAV ŠKODA\DESKTOP\PGRF2\FFT\FFT\RELEASE\VC141.PDB
C:\USERS\MIROSLAV ŠKODA\DESKTOP\PGRF2\FFT\FFT\RELEASE\MAIN.OBJ
C:\USERS\MIROSLAV ŠKODA\DESKTOP\PGRF2\FFT\FFT\RELEASE\FFT.OBJ
^C:\USERS\MIROSLAV ŠKODA\DESKTOP\PGRF2\FFT\FFT\FFT.CPP
C:\USERS\MIROSLAV ŠKODA\DESKTOP\PGRF2\FFT\FFT\RELEASE\VC141.PDB
^C:\USERS\MIROSLAV ŠKODA\DESKTOP\PGRF2\FFT\FFT\MAIN.CPP
C:\USERS\MIROSLAV ŠKODA\DESKTOP\PGRF2\FFT\FFT\RELEASE\VC141.PDB
